{
	"parole" : [ 
		{
			"direzione" : "oriz",
			"n_definizione" : 3,
			"definizione" : "Borsa Telematica del Recupero",
			"soluzione" : "BTR"
		},
		{
			"direzione" : "oriz",
			"n_definizione" : 6,
			"definizione" : "Mestiere britannico",
			"soluzione" : "JOB"
		},
		{
			"direzione" : "oriz",
			"n_definizione" : 8,
			"definizione" : "Uniti nella separazione",
			"soluzione" : "SCISMICI"
		},
		{
			"direzione" : "oriz",
			"n_definizione" : 15,
			"definizione" : "Sentimentale, lacrimevole",
			"soluzione" : "SOSPIROSA"
		},
		{
			"direzione" : "oriz",
			"n_definizione" : 20,
			"definizione" : "Anticipo di pagamento",
			"soluzione" : "ACCONTO"
		},
		{
			"direzione" : "oriz",
			"n_definizione" : 22,
			"definizione" : "In mezzo alla cena",
			"soluzione" : "EN"
		},
		{
			"direzione" : "oriz",
			"n_definizione" : 23,
			"definizione" : "Favorevole al regime cubano",
			"soluzione" : "PROCASTRISTA"
		},
		{
			"direzione" : "oriz",
			"n_definizione" : 26,
			"definizione" : "Manca dalla terza in poi",
			"soluzione" : "NCA"
		},
		{
			"direzione" : "oriz",
			"n_definizione" : 27,
			"definizione" : "Incorporata... brevemente",
			"soluzione" : "INC"
		},
		{
			"direzione" : "oriz",
			"n_definizione" : 28,
			"definizione" : "Lamento ovino",
			"soluzione" : "BE"
		},
		{
			"direzione" : "oriz",
			"n_definizione" : 29,
			"definizione" : "Non disposto speculare",
			"soluzione" : "DISSIMMETRICAMENTE"
		},
		{
			"direzione" : "oriz",
			"n_definizione" : 31,
			"definizione" : "Famoso libro di Antoine de Saint-Exupéry",
			"soluzione" : "ILPICCOLOPRINCIPE"
		},
		{
			"direzione" : "oriz",
			"n_definizione" : 33,
			"definizione" : "Giornale Radio Rai",
			"soluzione" : "GRR"
		},
		{
			"direzione" : "oriz",
			"n_definizione" : 34,
			"definizione" : "Famoso libro di Antoine de Saint-Exupéry",
			"soluzione" : "VOLODINOTTE"
		},
		{
			"direzione" : "oriz",
			"n_definizione" : 35,
			"definizione" : "Disgiunzione statunitense",
			"soluzione" : "OR"
		},
		{
			"direzione" : "oriz",
			"n_definizione" : 36,
			"definizione" : "Fabbrica Panda",
			"soluzione" : "FIAT"
		},
		{
			"direzione" : "oriz",
			"n_definizione" : 37,
			"definizione" : "E' a Londra",
			"soluzione" : "IS"
		},
		{
			"direzione" : "oriz",
			"n_definizione" : 39,
			"definizione" : "Lo conduce Mirabella",
			"soluzione" : "ELISIR"
		},
		{
			"direzione" : "oriz",
			"n_definizione" : 40,
			"definizione" : "Lo sono le carni dell'agnello",
			"soluzione" : "OVINE"
		},
		{
			"direzione" : "oriz",
			"n_definizione" : 41,
			"definizione" : "Fa un sacco rude",
			"soluzione" : "IUTA"
		},
		{
			"direzione" : "oriz",
			"n_definizione" : 42,
			"definizione" : "Eritropoietina",
			"soluzione" : "EPO"
		},
		{
			"direzione" : "oriz",
			"n_definizione" : 44,
			"definizione" : "La subisce il caffè",
			"soluzione" : "TOSTATURA"
		},
		{
			"direzione" : "oriz",
			"n_definizione" : 45,
			"definizione" : "Dice spesso cose che non pensa",
			"soluzione" : "ATTORE"
		},
		{
			"direzione" : "oriz",
			"n_definizione" : 47,
			"definizione" : "Si affacciano sul mar rosso",
			"soluzione" : "ERITREI"
		},
		{
			"direzione" : "oriz",
			"n_definizione" : 48,
			"definizione" : "Li corteggiano i candidati",
			"soluzione" : "ELETTORI"
		},
		{
			"direzione" : "oriz",
			"n_definizione" : 50,
			"definizione" : "Confederazione Nazionale dell'Artigianato",
			"soluzione" : "CNA"
		},
		{
			"direzione" : "oriz",
			"n_definizione" : 51,
			"definizione" : "Attraversa Berna",
			"soluzione" : "AAR"
		},
		{
			"direzione" : "oriz",
			"n_definizione" : 52,
			"definizione" : "Rende senza vocali",
			"soluzione" : "RND"
		},
		{
			"direzione" : "oriz",
			"n_definizione" : 54,
			"definizione" : "Il nome del fisico Amaldi",
			"soluzione" : "EDOARDO"
		},
		{
			"direzione" : "oriz",
			"n_definizione" : 55,
			"definizione" : "Scure d'aspetto",
			"soluzione" : "ATRE"
		},
		{
			"direzione" : "oriz",
			"n_definizione" : 57,
			"definizione" : "Affascinate, travolte",
			"soluzione" : "RAPITE"
		},
		{
			"direzione" : "oriz",
			"n_definizione" : 58,
			"definizione" : "Blocca giunture",
			"soluzione" : "ARTROSI"
		},
		{
			"direzione" : "oriz",
			"n_definizione" : 60,
			"definizione" : "Quindi, perciò",
			"soluzione" : "POICHE"
		},
		{
			"direzione" : "oriz",
			"n_definizione" : 61,
			"definizione" : "Alghe unicellulari",
			"soluzione" : "DIATOMEE"
		},
		{
			"direzione" : "oriz",
			"n_definizione" : 62,
			"definizione" : "Arrestava prima degli stop",
			"soluzione" : "ALT"
		},
		{
			"direzione" : "vert",
			"n_definizione" : 1,
			"definizione" : "Operating System",
			"soluzione" : "OS"
		},
		{
			"direzione" : "vert",
			"n_definizione" : 2,
			"definizione" : "Servizio Sanitario Regionale",
			"soluzione" : "SSR"
		},
		{
			"direzione" : "vert",
			"n_definizione" : 3,
			"definizione" : "Un mezzo con la catena",
			"soluzione" : "BICICLETTA"
		},
		{
			"direzione" : "vert",
			"n_definizione" : 4,
			"definizione" : "Cambiar di tinta",
			"soluzione" : "TRASCOLORARE"
		},
		{
			"direzione" : "vert",
			"n_definizione" : 5,
			"definizione" : "Si dice... sperando nel bel tempo",
			"soluzione" : "ROSSODISERA"
		},
		{
			"direzione" : "vert",
			"n_definizione" : 7,
			"definizione" : "Colpisce palle in un diamante",
			"soluzione" : "BATTITORE"
		},
		{
			"direzione" : "vert",
			"n_definizione" : 8,
			"definizione" : "Lo scandio",
			"soluzione" : "SC"
		},
		{
			"direzione" : "vert",
			"n_definizione" : 9,
			"definizione" : "Oratore pomposo",
			"soluzione" : "CONCIONATORE"
		},
		{
			"direzione" : "vert",
			"n_definizione" : 10,
			"definizione" : "Strangolare... mafiosamente",
			"soluzione" : "INCAPRETTATE"
		},
		{
			"direzione" : "vert",
			"n_definizione" : 11,
			"definizione" : "Organo del fiore",
			"soluzione" : "STAME"
		},
		{
			"direzione" : "vert",
			"n_definizione" : 12,
			"definizione" : "Modena",
			"soluzione" : "MO"
		},
		{
			"direzione" : "vert",
			"n_definizione" : 13,
			"definizione" : "Colpite",
			"soluzione" : "CENTRATE"
		},
		{
			"direzione" : "vert",
			"n_definizione" : 14,
			"definizione" : "Traballante, malferma",
			"soluzione" : "INCERTA"
		},
		{
			"direzione" : "vert",
			"n_definizione" : 16,
			"definizione" : "Fa la Corsa",
			"soluzione" : "OPEL"
		},
		{
			"direzione" : "vert",
			"n_definizione" :17,
			"definizione" : "Il posto del primo",
			"soluzione" : "PODIO"
		},
		{
			"direzione" : "vert",
			"n_definizione" : 18,
			"definizione" : "Vestono modelli in passerella",
			"soluzione" : "STILISTI"
		},
		{
			"direzione" : "vert",
			"n_definizione" : 19,
			"definizione" : "Vi regna dove c'è pace",
			"soluzione" : "ARMONIA"
		},
		{
			"direzione" : "vert",
			"n_definizione" : 21,
			"definizione" : "E' famoso a Venezia e a Cento",
			"soluzione" : "CARNEVALE"
		},
		{
			"direzione" : "vert",
			"n_definizione" : 24,
			"definizione" : "Notevoli, rilevanti",
			"soluzione" : "IMPORTANTI"
		},
		{
			"direzione" : "vert",
			"n_definizione" : 25,
			"definizione" : "Servizio per le tossicodipendenze",
			"soluzione" : "SERT"
		},
		{
			"direzione" : "vert",
			"n_definizione" : 27,
			"definizione" : "Infamante",
			"soluzione" : "INGIURIOSA"
		},
		{
			"direzione" : "vert",
			"n_definizione" : 28,
			"definizione" : "Scorrono su un tappeto verde",
			"soluzione" : "BILIE"
		},
		{
			"direzione" : "vert",
			"n_definizione" : 30,
			"definizione" : "InterCity",
			"soluzione" : "IC"
		},
		{
			"direzione" : "vert",
			"n_definizione" : 32,
			"definizione" : "Pavia",
			"soluzione" : "PV"
		},
		{
			"direzione" : "vert",
			"n_definizione" : 36,
			"definizione" : "Calanco norvegese",
			"soluzione" : "FIORDO"
		},
		{
			"direzione" : "vert",
			"n_definizione" : 38,
			"definizione" : "Messo su off",
			"soluzione" : "SPENTO"
		},
		{
			"direzione" : "vert",
			"n_definizione" : 43,
			"definizione" : "Li si consulta alla stazione",
			"soluzione" : "ORARI"
		},
		{
			"direzione" : "vert",
			"n_definizione" : 46,
			"definizione" : "Equivale ai millimetri di Mercurio",
			"soluzione" : "TORR"
		},
		{
			"direzione" : "vert",
			"n_definizione" : 49,
			"definizione" : "Formaggio olandese",
			"soluzione" : "EDAM"
		},
		{
			"direzione" : "vert",
			"n_definizione" : 50,
			"definizione" : "Un numero nell'indirizzo",
			"soluzione" : "CAP"
		},
		{
			"direzione" : "vert",
			"n_definizione" : 52,
			"definizione" : "Rapporto Interbancario Diretto",
			"soluzione" : "RID"
		},
		{
			"direzione" : "vert",
			"n_definizione" : 53,
			"definizione" : "L'adora il pagano",
			"soluzione" : "DEA"
		},
		{
			"direzione" : "vert",
			"n_definizione" : 56,
			"definizione" : "EuroCity",
			"soluzione" : "EC"
		},
		{
			"direzione" : "vert",
			"n_definizione" : 59,
			"definizione" : "Articolo determinativo",
			"soluzione" : "IL"
		}
	],

	"board" : [
		1,0,1,0,1,1,1,0,0,1,2,1,0,1,1,1,1,1,2,1,1,
		1,1,2,1,2,2,2,1,1,0,0,1,1,2,2,2,2,2,0,1,2,
		0,1,2,2,2,2,2,2,2,1,1,2,2,0,1,2,2,0,1,2,2,
		1,2,0,1,2,2,2,2,2,2,2,2,2,1,2,2,2,2,2,2,2,
		1,2,1,2,2,2,2,2,2,2,2,2,2,2,2,2,2,0,1,2,2,		
		2,0,1,2,2,2,2,2,2,2,2,2,2,0,1,2,0,1,2,2,2,
		1,1,0,0,1,2,2,2,2,2,0,1,2,2,2,2,0,1,2,2,2,
		1,2,1,0,1,2,2,2,2,2,2,2,2,0,1,2,1,2,2,2,0,
		0,1,2,2,2,2,2,2,0,2,0,1,2,1,2,2,2,2,2,0,0,
		1,2,2,0,1,2,2,0,1,2,1,0,1,2,2,2,2,2,2,0,0,
		1,2,2,1,0,1,2,2,2,2,2,0,0,1,2,2,2,2,2,1,0,
		1,2,2,2,2,2,0,0,1,2,2,2,2,2,2,2,0,0,1,2,2
	]
}